module main

go 1.14

require (
	github.com/gbrlsnchs/jwt/v3 v3.0.0-rc.1
	github.com/gin-gonic/gin v1.5.0
	go.mongodb.org/mongo-driver v1.3.1
	golang.org/x/crypto v0.0.0-20200320181102-891825fb96df
)
